2,USA,United States of America,0.06337963,31:12:2012
20,CAN,Canada,0.068136574,31:12:2012
31,BHM,Bahamas,0.444363426,31:12:2012
40,CUB,Cuba,0.858819444,31:12:2012
41,HAI,Haiti,0.06337963,0.19369213
41,HAI,Haiti,0.652939815,31:12:2012
42,DOM,Dominican Republic,27:02:1844,31:12:2012
51,JAM,Jamaica,0.278263889,31:12:2012
52,TRI,Trinidad and Tobago,31:08:1962,31:12:2012
53,BAR,Barbados,30:11:1966,31:12:2012
70,MEX,Mexico,0.067604167,31:12:2012
80,BLZ,Belize,0.904178241,31:12:2012
89,UPC,United Provinces of Central America,0.067627315,31:12:1839
90,GUA,Guatemala,0.063657407,31:12:2012
91,HON,Honduras,0.063657407,31:12:2012
92,SAL,El Salvador,0.063657407,31:12:2012
93,NIC,Nicaragua,0.063657407,31:12:2012
94,COS,Costa Rica,0.063657407,31:12:2012
95,PAN,Panama,0.154664352,31:12:2012
99,GCL,Great Colombia,30:08:1821,0.944097222
100,COL,Colombia,0.985763889,31:12:2012
101,VEN,Venezuela,0.063530093,31:12:2012
110,GUY,Guyana,26:05:1966,31:12:2012
115,SUR,Surinam,25:11:1975,31:12:2012
130,ECU,Ecuador,0.566319444,31:12:2012
135,PER,Peru,0.404444444,31:12:2012
140,BRA,Brazil,0.31900463,31:12:2012
145,BOL,Bolivia,0.276678241,31:12:2012
150,PAR,Paraguay,0.06337963,31:12:2012
155,CHL,Chile,0.065486111,31:12:2012
160,ARG,Argentina,0.40087963,31:12:2012
165,URU,Uruguay,26:05:1830,31:12:2012
200,UKG,United Kingdom,0.06337963,31:12:2012
205,IRE,Ireland,0.28056713,31:12:2012
210,NTH,Netherlands,0.06337963,31:12:2012
211,BEL,Belgium,0.194791667,31:12:2012
212,LUX,Luxembourg,0.483414352,31:12:2012
220,FRN,France,0.06337963,31:12:2012
225,SWZ,Switzerland,0.06337963,31:12:2012
230,SPN,Spain,0.06337963,31:12:2012
235,POR,Portugal,0.06337963,31:12:2012
240,HAN,Hanover,0.06337963,0.73068287
245,BAV,Bavaria,0.06337963,0.73068287
255,GMY,Germany (Prussia),0.06337963,0.317650463
260,GFR,German Federal Republic,0.90380787,31:12:2012
265,GDR,German Democratic Republic,0.237835648,0.113310185
267,BAD,Baden,0.06337963,0.73068287
269,SAX,Saxony,0.06337963,0.73068287
271,WRT,W?ttemberg,0.06337963,0.73068287
273,HSE,Hesse-Kassel (Electoral),0.06337963,0.73068287
275,HSD,Hesse-Darmstadt (Ducal),0.06337963,0.73068287
280,MEC,Mecklenburg-Schwerin,0.06337963,0.73068287
290,POL,Poland,0.488171296,31:12:2012
300,AUH,Austria-Hungary,0.06337963,0.57150463
305,AUS,Austria,0.613171296,31:12:2012
310,HUN,Hungary,0.154837963,31:12:2012
315,CZE,Czechoslovakia,0.488171296,31:12:1992
316,CZR,Czech Republic,0.065428241,31:12:2012
317,SLO,Slovakia,0.065428241,31:12:2012
325,ITA,Italy/Sardinia,0.06337963,31:12:2012
327,PAP,Papal States,0.06337963,0.944560185
329,SIC,Two Sicilies,0.06337963,0.690289352
332,MOD,Modena,0.06337963,0.690289352
335,PMA,Parma,0.06337963,0.690289352
337,TUS,Tuscany,0.06337963,0.690289352
338,MLT,Malta,0.903981481,31:12:2012
339,ALB,Albania,0.064502315,31:12:2012
341,MNG,Montenegro,0.063981481,0.06869213
341,MNG,Montenegro,0.152384259,31:12:2012
343,MAC,Macedonia (Former Yugoslav Republic of),0.864016204,31:12:2012
344,CRO,Croatia,27:04:1992,31:12:2012
340,SER,Serbia,0.568263889,0.070775463
340,SER,Serbia,0.235717593,31:12:2012
345,YUG,Yugoslavia,0.072199074,0.194050926
346,BOS,Bosnia-Herzegovina,27:04:1992,31:12:2012
347,KOS,Kosovo,0.732962963,31:12:2012
349,SLV,Slovenia,27:04:1992,31:12:2012
350,GRC,Greece,25:04:1828,31:12:2012
352,CYP,Cyprus,0.694907407,31:12:2012
355,BUL,Bulgaria,0.148819444,31:12:2012
359,MLD,Moldova,27:08:1991,31:12:2012
360,RUM,Rumania,0.568263889,31:12:2012
365,RUS,Russia (Soviet Union),0.06337963,31:12:2012
366,EST,Estonia,0.488171296,0.068287037
366,EST,Estonia,0.279293981,31:12:2012
367,LAT,Latvia,0.488171296,0.068287037
367,LAT,Latvia,0.279293981,31:12:2012
368,LIT,Lithuania,0.69025463,0.068287037
368,LIT,Lithuania,0.279293981,31:12:2012
369,UKR,Ukraine,0.073043981,31:12:2012
370,BLR,Belarus (Byelorussia),25:08:1991,31:12:2012
371,ARM,Armenia,0.906377315,31:12:2012
372,GRG,Georgia,0.279293981,31:12:2012
373,AZE,Azerbaijan,0.906377315,31:12:2012
375,FIN,Finland,0.280520833,31:12:2012
380,SWD,Sweden,0.06337963,31:12:2012
385,NOR,Norway,26:08:1905,31:12:2012
390,DEN,Denmark,0.06337963,31:12:2012
395,ICE,Iceland,0.735,31:12:2012
402,CAP,Cape Verde,0.236053241,31:12:2012
404,GNB,Guinea-Bissau,0.445763889,31:12:2012
411,EQG,Equatorial Guinea,0.529722222,31:12:2012
420,GAM,Gambia,0.774131944,31:12:2012
432,MLI,Mali,0.945601852,31:12:2012
433,SEN,Senegal,0.19212963,31:12:2012
434,BEN,Benin,0.069907407,31:12:2012
435,MAA,Mauritania,28:11:1960,31:12:2012
436,NIR,Niger,0.153240741,31:12:2012
437,CDI,Cote D?voire,0.319907407,31:12:2012
438,GUI,Guinea,0.112939815,31:12:2012
439,BFO,Burkina Faso (Upper Volta),0.236574074,31:12:2012
450,LBR,Liberia,26:07:1847,31:12:2012
451,SIE,Sierra Leone,27:04:1961,31:12:2012
452,GHA,Ghana,0.274733796,31:12:2012
461,TOG,Togo,27:04:1960,31:12:2012
471,CAO,Cameroon,0.065046296,31:12:2012
475,NIG,Nigeria,0.071296296,31:12:2012
481,GAB,Gabon,0.736574074,31:12:2012
482,CEN,Central African Republic,0.569907407,31:12:2012
483,CHA,Chad,0.486574074,31:12:2012
484,CON,Congo,0.653240741,31:12:2012
490,DRC,"Congo, Democratic Republic of (Zaire)",30:06:1960,31:12:2012
500,UGA,Uganda,0.404652778,31:12:2012
501,KEN,Kenya,0.531053241,31:12:2012
510,TAZ,Tanzania/Tanganyika,0.406030093,31:12:2012
511,ZAN,Zanzibar,0.822719907,26:04:1964
516,BUI,Burundi,0.069236111,31:12:2012
517,RWA,Rwanda,0.315069444,31:12:2012
520,SOM,Somalia,0.069212963,31:12:2012
522,DJI,Djibouti,27:06:1977,31:12:2012
530,ETH,Ethiopia,0.48119213,31:12:2012
531,ERI,Eritrea,24:05:1993,31:12:2012
540,ANG,Angola,0.488831019,31:12:2012
541,MZM,Mozambique,25:06:1975,31:12:2012
551,ZAM,Zambia,24:10:1964,31:12:2012
552,ZIM,Zimbabwe (Rhodesia),0.488715278,31:12:2012
553,MAW,Malawi,0.277592593,31:12:2012
560,SAF,South Africa,31:05:1910,31:12:2012
563,TRA,Transvaal,0.063796296,30:05:1910
564,OFS,Orange Free State,28:03:1854,30:05:1910
565,NAM,Namibia,0.900115741,31:12:2012
570,LES,Lesotho,0.196365741,31:12:2012
571,BOT,Botswana,30:09:1966,31:12:2012
572,SWA,Swaziland,0.279027778,31:12:2012
580,MAG,Madagascar (Malagasy),0.06337963,0.235833333
580,MAG,Madagascar,26:06:1960,31:12:2012
581,COM,Comoros,0.277719907,31:12:2012
590,MAS,Mauritius,0.524861111,31:12:2012
600,MOR,Morocco,0.06337963,0.064398148
600,MOR,Morocco,0.108055556,31:12:2012
615,ALG,Algeria,0.06337963,0.234375
615,ALG,Algeria,0.235902778,31:12:2012
616,TUN,Tunisia,0.06337963,0.525243056
616,TUN,Tunisia,0.065,31:12:2012
620,LIB,Libya,0.06337963,31:12:1834
620,LIB,Libya,24:12:1951,31:12:2012
625,SUD,Sudan,0.065,31:12:2012
626,SSD,South Sudan,0.403136574,31:12:2012
630,IRN,Iran (Persia),0.06337963,31:12:2012
640,TUR,Turkey (Ottoman Empire),0.06337963,31:12:2012
645,IRQ,Iraq,0.154305556,31:12:2012
651,EGY,Egypt,0.063506944,31:12:1855
651,EGY,Egypt,28:02:1922,31:12:2012
652,SYR,Syria,0.064884259,31:12:2012
660,LEB,Lebanon,0.946805556,31:12:2012
663,JOR,Jordan,25:05:1946,31:12:2012
666,ISR,Israel,0.609351852,31:12:2012
670,SAU,Saudi Arabia,0.986944444,31:12:2012
678,YEM,Yemen (Arab Republic of Yemen),30:10:1918,31:12:2012
680,YPR,"Yemen, People's Republic of",30:11:1967,0.90150463
690,KUW,Kuwait,0.818530093,31:12:2012
692,BAH,Bahrain,0.653368056,31:12:2012
694,QAT,Qatar,0.1540625,31:12:2012
696,UAE,United Arab Emirates,0.114479167,31:12:2012
698,OMA,Oman,0.06337963,31:12:2012
700,AFG,Afghanistan,0.06337963,30:12:1888
700,AFG,Afghanistan,0.067349537,31:12:2012
701,TKM,Turkmenistan,27:10:1991,31:12:2012
702,TAJ,Tajikistan,0.404293981,31:12:2012
703,KYR,Kyrgyz Republic,31:08:1991,31:12:2012
704,UZB,Uzbekistan,31:08:1991,31:12:2012
705,KZK,Kazakhstan,0.698043981,31:12:2012
710,CHN,China,0.06337963,31:12:2012
711,TBT,Tibet,0.064502315,0.071180556
712,MON,Mongolia,0.565983796,31:12:2012
713,TAW,Taiwan,0.364224537,31:12:2012
730,KOR,Korea,0.06337963,0.944328704
731,PRK,"Korea, People's Republic of",0.403796296,31:12:2012
732,ROK,"Korea, Republic of",0.653101852,31:12:2012
740,JPN,Japan,0.06337963,31:12:2012
750,IND,India,0.653090278,31:12:2012
760,BHU,Bhutan,0.064918981,31:12:2012
770,PAK,Pakistan,0.611423611,31:12:2012
771,BNG,Bangladesh,0.6978125,31:12:2012
775,MYA,Myanmar (Burma),0.06337963,31:12:1885
775,MYA,Myanmar (Burma),0.189907407,31:12:2012
780,SRI,Sri Lanka (Ceylon),0.190601852,31:12:2012
781,MAD,Maldives,26:05:1965,31:12:2012
790,NEP,Nepal,0.06337963,31:12:2012
800,THI,Thailand,0.06337963,31:12:2012
811,CAM,Cambodia (Kampuchea),0.405243056,31:12:2012
812,LAO,Laos,0.06775463,31:12:2012
815,VNM,Vietnam (Annam/Cochin China/Tonkin),0.06337963,0.064270833
816,DRV,"Vietnam, Democratic Republic of",0.06775463,31:12:2012
817,RVN,"Vietnam, Republic of",0.06775463,30:04:1975
820,MAL,Malaysia,31:08:1957,31:12:2012
830,SIN,Singapore,0.403298611,31:12:2012
835,BRU,Brunei,0.065324074,31:12:2012
840,PHI,Philippines,0.194050926,31:12:2012
850,INS,Indonesia,0.736400463,31:12:2012
860,ETM,East Timor,0.859976852,31:12:2012
900,AUL,Australia,0.064363426,31:12:2012
910,PNG,Papua New Guinea,0.695775463,31:12:2012
920,NEW,New Zealand,0.069988426,31:12:2012
940,SOL,Solomon Islands,0.319421296,31:12:2012
950,FJI,Fiji,0.446412037,31:12:2012
