Country,1945,1946,1947,1948,1949,1950,1951,1952,1953,1954,1955,1956,1957,1958,1959,1960,1961,1962,1963,1964,1965,1966,1967,1968,1969,1970,1971,1972,1973,1974,1975,1976,1977,1978,1979,1980,1981,1982,1983,1984,1985,1986,1987,1988,1989,1990,1991,1992,1993,1994,1995,1996,1997,1998,1999,2000,2001,2002,2003,2004,2005,2006,2007,2008,2009,2010,2011,2012,2013,2014,2015,2016,2017
Afghanistan,,,,,,,,,,,,,,,,,,,,,,,,,,,,,,,,,,,,,,,,,,,,,,,,,,,,,,,,,,,,,,,,,,,,,,,,,
Albania,,,,,,,,,,,,,,,,,,,,,,,,,,,,,,,,,,,,,,,,,,,,,,,,,,,,,,,,,,,,,,,,,,,,,,,,,
Algeria,,,,,,,,,,,,,,,,,,,,,,,,,,,,,,,,,,,,,,,,,,,,,,,,,,,,,,,,,,,,,,,,,,,,,,,,,
American Samoa,,,,,,,,,>0,,,,,>0,,,,,,,,,,,,,,,,,,,,,,,,,,,,,,,,,,,,,,,,,,,,,,,,,,,,,,,,,,,
Andorra,,,,,,,,,,,,,,,,,,,,,,,,,,,,,,,,,,,,,,,,,,,,,,,,,,,,,,,,,,,,,,,,,,,,,,,,,
Angola,>0,3025,3025,3025,3025,8500,4352,>0,>0,>0,>0,>0,>0,>0,>0,3033,,,906,,,,,,,67,,0,0,75,0,17,2,1,2,0,3,~0,~0,~0,,,,70,,,,,,,,,,,,,,,,,,,,,,,,,,,,,
Anguilla,,,,,,,,,,,,,,,,,,,,,,,,,,,,,,,,,,,,,,,,,,,,,,,,,,,,,,,,,,,,,,,,,,,,,,,,,
Antigua and Barbuda,,,128,112,89,,,,54,70,46,27,23,11,10,53,4,,1,1,,,,,,,0,9,0,0,1,2,1,~0,~0,~0,,,,,,,,,,,,,,,,,,,,,,,,,,,,,,,,,,,,,
Argentina,,0,0,0,0,0,0,0,0,0,0,0,0,0,0,0,0,0,0,0,0,,,,,,,,,,,,,,,,,,,,,,,,,,,,,,,,,,,,,,,,,,,,,,,,,,,,
Armenia,,,,,,,,,,,,,,,,,,,,,,,,,,,,,,,,,,,,,,,,,,,,,,,,,,,,,,,,,,,,,,,,,,,,,,,,,
Aruba,,,,,,,,,,,0,0,,,,,,,,,,,,,,,,,,,,,,,,,,,,,,,,,,,,,,,,,,,,,,,,,,,,,,,,,,,,,
Australia,>0,>0,>0,>0,>0,>0,>0,>0,>0,>0,>0,>0,6,>0,>0,,,,,,,,,2,6,6,,>0,,,,,,,,,,,,,,,,,,,,,,,,,,,,,,,,,,,,,,,,,,,,,
Austria,,,,,,,,,,,,,,,,,,,,,,,,,,,,,,,,,,,,,,,,,,,,,,,,,,,,,,,,,,,,,,,,,,,,,,,,,
Azerbaijan,,,,,,,,,,,,,,,,,,,,,,,,,,,,,,,,,,,,,,,,,,,,,,,,,,,,,,,,,,,,,,,,,,,,,,,,,
"Bahamas, The",,,,,,,,,,1,0,0,0,,,,,,0,0,,,,,,,,,,,,,,,,,,,,,,,,,,,,,,,,,,,,,,,,,,,,,,,,,,,,,
Bahrain,,,,,,,,,,,,,,,,,,,,,,,,,,,,,,,,,,,,,,,,,,,,,,,,,,,,,,,,,,,,,,,,,,,,,,,,,
Bangladesh,,,,,,,,,,,,,,,,,,,,,,,,,,,,,,,,,,,,,,,,,,,,,,,,,,,,,,,,,,,,,,,,,,,,,,,,,
Barbados,,,,,,,,,,,0,0,,,,,,,,,,,,,,,,,,,,,,,,>0,>0,>0,>0,>0,1,,,,,,,,,,,,,,,,,,,,,,,,,,,,,,,,
Belarus,,,,,,,,,,,,,,,,,,,,,,,,,,,,,,,,,,,,,,,,,,,,,,,,,,,,,,,,,,,,,,,,,,,,,,,,,
Belgium,,,,,,,,,,,,,,,,,,,,,,,,,,,,,,,,,,,,,,,,,,,,,,,,,,,,,,,,,,,,,,,,,,,,,,,,,
Belize,,0,0,0,0,0,0,0,0,0,0,,,,,,,,,,,,,,,,,,,,,,,,,,,,,,,,,,,,,,,,,,,,,,,,,,,,,,,,,,,,,,
Benin,>0,>0,>0,20800,21757,22262,>0,>0,>0,>0,>0,>0,>0,>0,>0,>0,>0,>0,,,,,,,,,,6830,4969,4006,7666,10378,22980,11683,10470,11112,9291,5379,6348,3327,1730,,2428,,,>0,>0,>0,>0,>0,>0,>0,>0,>0,>0,>0,>0,>0,>0,>0,>0,>0,>0,>0,>0,45,>0,11,10,,,,
Bermuda,,,,,,,,,,,,,,,,,,,,,,,,,,,,,,,,,,,,,,,,,,,,,,,,,,,,,,,,,,,,,,,,,,,,,,,,,
Bhutan,,,,,,,,,,,,,,,,,,,,,,,,,,,,,,,,,,,,,,,,,,,,,,,,,,,,,,,,,,,,,,,,,,,,,,,,,
Bolivia (Plurinational State of),,2400,,,,,,,,,,,,,0,0,,,,,,2,,0,,,,,,,,,,,,,,,,,,,,,,,,,,,,,,,,,,,,,,,,,,,,,,,,,
Bosnia and Herzegovina,,,,,,,,,,,,,,,,,,,,,,,,,,,,,,,,,,,,,,,,,,,,,,,,,,,,,,,,,,,,,,,,,,,,,,,,,
Botswana,,,,,,,,,,,,,,,,,,,,,,,,,,,,,,,,,,,,,,,,,,,,,,,,,,,,,,,,,,,,,,,,,,,,,,,,,
Brazil,5425,3177,3177,3177,3177,3177,490,490,490,490,2,143106,297681,79652,39325,29338,,,,,16307,14484,14167,7421,4916,3217,581,1124,18,118,131,17,,,,>0,>0,>0,>0,>0,>0,,,,,,,,,,,,,,,,,,,,,,,,,,,,,,,,
British Virgin Islands,,,,,,,,31,6,13,0,0,0,0,0,0,,,,,,,,,,,,,,,,,,,,,,,,,,,,,,,,,,,,,,,,,,,,,,,,,,,,,,,,,
Brunei Darussalam,,,,,,,,,,,,,,,,,,,,,,,,,,,,,,,,,,,,,,,,,,,,,,,,,,,,,,,,,,,,,,,,,,,,,,,,,
Bulgaria,,,,,,,,,,,,,,,,,,,,,,,,,,,,,,,,,,,,,,,,,,,,,,,,,,,,,,,,,,,,,,,,,,,,,,,,,
Burkina Faso,>0,>0,>0,17600,21757,18006,>0,>0,>0,142,>0,>0,>0,>0,>0,>0,,,,,,,,,,,1653,405,284,1156,1131,1230,1019,1428,1349,598,1002,544,781,485,578,580,,583,,,,,,,,,,,,,,,,,,,,,,,,,,,,,
Burundi,>0,>0,>0,>0,>0,62100,>0,>0,>0,>0,>0,>0,>0,>0,>0,,,,,,,,,,,,,,,,,,,,,348,203,167,117,102,37,103,89,94,,,,,,,,,,,,,,,,,,,,,,,,,,,,,
Cabo Verde,,,,,,,,,,,,,,,,,,,,,,,,,,,,,,,,,0,,0,,,,,,,,,,,,,,,,,,,,,,,,,,,,,,,,,,,,,,
Cambodia,>0,>0,>0,>0,>0,>0,>0,>0,>0,>0,>0,>0,>0,>0,>0,19072,>0,>0,>0,>0,>0,>0,>0,>0,>0,,,,,,,,,,,,,,,,,4858,483,483,483,483,8802,,,,,,,,,,,,,,,,,,,,,,,,,,
Cameroon,104063,138177,146771,147031,163437,172693,160833,150677,143646,142604,144427,122812,106667,124896,82708,46250,,,13312,,,,,,15,15,>0,,,15,3,,,0,,~0,~0,0,8041,9226,5030,4425,3425,4354,,,,,,,,,,,,,,,,,,,346,346,346,802,133,61,127,530,463,890,
Canada,,,,,,,,,,,,,,,,,,,,,,,,,,,,,,,,,,,,,,,,,,,,,,,,,,,,,,,,,,,,,,,,,,,,,,,,,
Cayman Islands,,,,,,,,,,,,,,,,,,,,,,,,,,,,,,,,,,,,,,,,,,,,,,,,,,,,,,,,,,,,,,,,,,,,,,,,,
Central African Republic,27656,31215,30781,33700,27917,35079,25486,24444,22969,32604,26701,24097,13073,13160,>0,4157,,,,,,,,,,,,135,340,194,274,125,318,689,852,~0,~0,1085,779,1188,1025,1236,1553,>0,213,,,>0,,,,,,,,,,,,,,,,243,,,,230,,,,,
Chad,>0,>0,>0,4200,6976,2651,>0,>0,>0,>0,>0,161,>0,>0,>0,,,,,,,,,,,,,150,200,81,165,219,199,112,,~0,~0,4,6,629,2173,88,,,,,,,,,,,,,,,,,,,,,,,,,,,,,,,
Chile,,,,,,,,,,0,0,0,0,0,,,,0,0,0,,,,0,,,,,,,,,,,,,,,,,,,,,,,,,,,,,,,,,,,,,,,,,,,,,,,,,
China,,,,,,,,,,,,,119,,,,,,,,,,,,,,,,,,,,,,,,,,,,,,,,,,,,,,,,,,,,,,,,,,,,,,,,,,,,
Colombia,>0,>0,1791,2357,3709,2855,2547,3083,4246,2473,1299,1154,1201,732,810,463,331,416,351,225,189,84,62,63,30,34,18,67,573,379,319,220,169,127,130,153,109,56,31,>0,>0,14,12,23,407,78,,108,,,38,,,,,,,,,,,,,,,,,,,,,,
Comoros,,,,15200,,,,,,,,,,,,3495,,,,,,,,,,,,,,,,,,,,,,,,,,,,,,,,,,,,,,,,,,,,,,,,,,,,,,,,,
Congo,27656,31215,30781,25000,27917,24820,25486,24444,22969,32604,26701,24097,13073,13160,>0,5904,5433,3112,,,,,,,,,1248,919,1179,390,1759,1074,815,579,343,868,2164,1433,203,1644,161,100,269,48,,,,,,,,,,,,,,,,135,55,>0,,,646,1,167,485,,,,,
Cook Islands,,,,,,>0,>0,>0,>0,>0,>0,>0,>0,>0,>0,17,>0,>0,>0,>0,>0,>0,>0,>0,>0,,,,,,,,,,,,,,,,,,,1,,2,5,~0,,~0,~0,~0,,,~0,~0,~0,~0,~0,~0,~0,,~0,~0,~0,~0,,,,,,,
Costa Rica,>0,>0,>0,>0,>0,>0,4,2,0,1,1,0,1,0,0,0,0,0,0,0,,,0,,,,,,,,,,,,,,,,,,,,,,,,,,,,,,,,,,,,,,,,,,,,,,,,,,
Cote d'Ivoire,>0,>0,>0,107300,21757,135429,>0,>0,>0,>0,>0,>0,>0,>0,>0,>0,>0,>0,>0,>0,>0,>0,>0,>0,>0,29600,17027,17376,17098,14176,28581,15506,35185,38856,32690,35422,28086,22576,18235,16109,10468,5166,18790,22234,20476,17738,,,,,,23030,,,,9212,5692,7688,6103,5799,5320,5294,5936,5031,4410,3740,3343,3092,2256,2650,1940,1581,
Croatia,,,,,,,,,,,,,,,,,,,,,,,,,,,,,,,,,,,,,,,,,,,,,,,,,,,,,,,,,,,,,,,,,,,,,,,,,
Cuba,99,99,99,99,99,99,99,99,99,0,0,0,>0,>0,0,1,0,0,0,0,,,0,,,,,,,,,,,,,,,,,,,,,,,,,,,,,,,,,,,,,,,,,,,,,,,,,,
Cyprus,,,,,,,,,,,,,,,,,,,,,,,,,,,,,,,,,,,,,,,,,,,,,,,,,,,,,,,,,,,,,,,,,,,,,,,,,
Czech Republic,,,,,,,,,,,,,,,,,,,,,,,,,,,,,,,,,,,,,,,,,,,,,,,,,,,,,,,,,,,,,,,,,,,,,,,,,
Democratic People's Republic of Korea,,,,,,,,,,,,,,,,,,,,,,,,,,,,,,,,,,,,,,,,,,,,,,,,,,,,,,,,,,,,,,,,,,,,,,,,,
Denmark,,,,,,,,,,,,,,,,,,,,,,,,,,,,,,,,,,,,,,,,,,,,,,,,,,,,,,,,,,,,,,,,,,,,,,,,,
Djibouti,,,,,2,2,,,,,,,,,,,,,,,,,,,,,,,,,,,,,,,,,,,,,,,,,,,,,,,,,,,,,,,,,,,,,,,,,,,
Dominica,,,497,630,290,222,275,545,403,1469,1031,617,225,236,223,204,,40,54,22,29,125,128,86,126,353,351,206,72,32,7,3,28,7,28,>0,>0,>0,>0,>0,>0,,,,,,,,,,,,,,,,,,,,,,,,,,,,,,,,
Dominican Republic,>0,>0,8984,6665,7324,6730,6078,5471,>0,>0,15574,24107,>0,>0,181,303,459,285,42,31,30,6,35,7,1,2,9,1,0,0,0,0,0,0,0,,,,,,,,,,,,,,,,,,,,,,,,,,,,,,,,,,,,,,
Democratic Republic of the Congo,325994,257565,752,244500,630,244570,>0,217639,>0,>0,>0,141096,>0,>0,210,,,,,,,,,,,,,,,,15,,,420,260,385,554,642,380,111,>0,,,,,,,,,,,,,,,,,,,,383,,,383,383,,,55,,,,,
Ecuador,>0,>0,>0,>0,>0,2185,2185,2185,2185,2185,2185,541,>0,>0,>0,,,,,7,>0,>0,>0,>0,611,645,437,380,337,505,364,185,100,53,2,>0,>0,>0,>0,>0,>0,>0,>0,309,>0,>0,>0,24,16,32,17,21,77,5,3,8,>0,3,14,10,5,0,0,,,,,,,,,,
Egypt,,,,,,,,,,,,,,,,,,,,,,,,,,,,,,,,,,,,,,,,,,,,,,,,,,,,,,,,,,,,,,,,,,,,,,,,,
El Salvador,,0,0,0,0,0,0,0,0,0,0,0,0,0,0,0,,0,0,,0,0,0,,,,,,,,,,,,,,,,,,,,,,,,,,,,,,,,,,,,,,,,,,,,,,,,,,
Equatorial Guinea,>0,>0,>0,>0,>0,7400,>0,>0,>0,>0,>0,>0,>0,>0,>0,,,,,,,,,,,,,,,,,,,,,~0,~0,~0,~0,283,>0,,,,,,,,,,,,,,,,,,,,,,,,,,,,,,,,
Eritrea,,,,,,,,,,,,,,,,,,,,,,,,,,,,,,,,,,,,,,,,,,,,,,,,,,,,,,,,,,,,,,,,,,,,,,,,,
Estonia,,,,,,,,,,,,,,,,,,,,,,,,,,,,,,,,,,,,,,,,,,,,,,,,,,,,,,,,,,,,,,,,,,,,,,,,,
Ethiopia,>0,>0,>0,>0,>0,>0,>0,>0,>0,>0,>0,>0,>0,>0,>0,,,,,,,,,,,,,,,,,,,0,0,~0,137,225,585,91,394,533,187,210,,,,,,,,,,,,,,,,,,,,,,,,,,,,,
Fiji,41,890,,,,>0,>0,>0,30000,4170,5274,519,159,135,82,26,30,13,21,37,11,16,3,1,>0,,,,,1,,1,,,,,,,1,,,2,11,,0,,,~0,1,~0,3,,,,,,,,,,,,,,,,,,,,,,
Finland,,,,,,,,,,,,,,,,,,,,,,,,,,,,,,,,,,,,,,,,,,,,,,,,,,,,,,,,,,,,,,,,,,,,,,,,,
France,,,,,,,,,,,,,,,,,,,,,,,,,,,,,,,,,,,,,,,,,,,,,,,,,,,,,,,,,,,,,,,,,,,,,,,,,
French Guiana,>0,>0,>0,>0,>0,>0,>0,>0,>0,8,48,>0,>0,>0,>0,,,,0,0,,,,,,,,,,,,,,,,>0,>0,>0,>0,>0,>0,,,,,,,,,,,,,,,,,,,,,,,,,,,,,,,,
French Polynesia,,,,,,,,,,,,,,,,,,,,,,,,,,,,,,,,,,,,,,,,,,,,,,,,,,,,,,,,,,,,,,,,,,,,,,,,,
Gabon,27656,31215,30781,32900,27917,19115,25486,24444,22969,32604,26701,24097,13073,13160,>0,10807,,,4131,,,,,,,,,935,1015,1053,981,566,1824,814,1082,256,504,349,223,257,342,213,614,3534,,,,,,,,,,,,,,,,,,,,,,>0,,,,,,,
Gambia,>0,>0,>0,>0,4900,>0,>0,>0,>0,>0,>0,>0,1,>0,>0,,,,,,,,,,,,,,,,,1494,1426,153,291,,319,~0,4,~0,,,,,,,,,,,,,,,,,,,,,,,,,,,,,,,,,
Georgia,,,,,,,,,,,,,,,,,,,,,,,,,,,,,,,,,,,,,,,,,,,,,,,,,,,,,,,,,,,,,,,,,,,,,,,,,
Germany,,,,,,,,,,,,,,,,,,,,,,,,,,,,,,,,,,,,,,,,,,,,,,,,,,,,,,,,,,,,,,,,,,,,,,,,,
Ghana,13620,16407,31288,143800,>0,12,6,>0,>0,>0,>0,>0,39466,>0,20520,>0,3518,>0,>0,>0,>0,>0,>0,6593,3343,9704,12747,22199,44054,51432,59926,71765,53875,44836,47944,59317,56212,55092,29066,9660,4012,,,,,,,,,,,,,,,,,47694,38367,47724,26000,19097,25459,20525,35248,18157,9674,8980,18702,2055,1636,1481,
Greece,,,,,,,,,,,,,,,,,,,,,,,,,,,,,,,,,,,,,,,,,,,,,,,,,,,,,,,,,,,,,,,,,,,,,,,,,
Grenada,,2114,1329,2356,,2429,1306,1256,1933,798,178,,,,0,3,0,7,0,0,,,>0,>0,75,18,15,8,0,0,0,0,0,0,0,>0,>0,>0,>0,>0,>0,,,,,,,,,,,,,,,,,,,,,,,,,,,,,,,,
Guadeloupe,,,,,,100,159,102,91,,,,,,0,0,,,,0,,,,,,,,,,,,,,,,,,,,,,,,,,,,,,,,,,,,,,,,,,,,,,,,,,,,,
Guam,2246,1322,385,19,803,,,,,,1,1,,,,,,,,,,,,,,,,,,,,,,,,,,,,,,,,,,,,,,,,,,,,,,,,,,,,,,,,,,,,,
Guatemala,>0,0,0,0,0,0,0,0,0,0,0,0,0,0,0,0,,,,,,,,,,1,0,0,0,0,1,0,0,0,0,,,,,,,,,,,,,,,,,,,,,,,,,,,,,,,,,,,,,,
Guinea,>0,>0,>0,32900,21757,30281,>0,>0,>0,>0,>0,>0,>0,>0,>0,,,,,,,,,,,,,823,1104,660,305,267,337,359,109,,65,,1652,1174,161,127,208,59,,,,,,,,,,,,,,,,,,,,,,,,,,,,,
Guinea-Bissau,>0,>0,>0,>0,35,82,4905,>0,>0,>0,313,1268,>0,>0,>0,2064,,,,,296,,,57,,17,,,,,,5,30,16,11,183,24,5,3,~0,4,10,2,,,,,,,,,,,,,,,,,,,,,,,,,,,,,,
Guyana,>0,101,>0,>0,16,76,81,65,45,90,90,65,11,5,>0,0,0,3,40,2,18,30,,,,,,,,,,,11,20,23,2,2,2,2,2,>0,,,,,,,,,,,,,,,52,8,,,,,,,,,,,,,,,,
Haiti,117576,162213,157839,174389,45356,188495,188495,307774,307774,307774,6592,14789,6992,3413,860,695,358,271,81,86,69,161,72,41,59,32,123,14,12,26,13,20,11,11,31,,,,,,,,,>0,,,,,11,,,,,>0,,,,,,,,,,,,,,,,,,,
Honduras,,,,,,,,,,,,,,,,,,,,,,,,,,,,,,,,,,,,,,,,,,,,,,,,,,,,,,,,,,,,,,,,,,,,,,,,,
Hong Kong,,,,,,,,,,,,,,,,,,,,,,,,,,,,,,,,,,,,,,,,,,,,,,,,,,,,,,,,,,,,,,,,,,,,,,,,,
Hungary,,,,,,,,,,,,,,,,,,,,,,,,,,,,,,,,,,,,,,,,,,,,,,,,,,,,,,,,,,,,,,,,,,,,,,,,,
Iceland,,,,,,,,,,,,,,,,,,,,,,,,,,,,,,,,,,,,,,,,,,,,,,,,,,,,,,,,,,,,,,,,,,,,,,,,,
India,>0,>0,>0,>0,>0,>0,293,19971,19971,19971,19971,19971,19971,19971,19971,19971,19971,11385,11385,,,>0,>0,,,,,493,,,,,26,,,464,407,407,588,452,349,,,,,,,,,,,3571,735,667,467,664,313,281,46,0,0,0,0,0,0,0,0,0,,,,,
Indonesia,>0,>0,>0,2067,>0,39284,234385,294055,606032,1077828,1268028,1304663,1369082,1128562,720529,528462,451351,382767,358531,297381,134367,115328,155864,189040,149396,,37644,14599,24056,5237,3506,2781,5233,5577,6817,13190,25304,11414,7302,15931,>0,,,114,101,2,115,1,,,,,,,,>0,2112,4987,3283,3489,5099,6464,8907,6083,7751,6178,6631,4360,2043,1521,3379,2762,
Iran (Islamic Republic of),,,,,,,,,,,,,,,,,,,,,,,,,,,,,,,,,,,,,,,,,,,,,,,,,,,,,,,,,,,,,,,,,,,,,,,,,
Iraq,,,,,,,,,,,,,,,,,,,,,,,,,,,,,,,,,,,,,,,,,,,,,,,,,,,,,,,,,,,,,,,,,,,,,,,,,
Ireland,,,,,,,,,,,,,,,,,,,,,,,,,,,,,,,,,,,,,,,,,,,,,,,,,,,,,,,,,,,,,,,,,,,,,,,,,
Israel,,,,,,,,,,,,,,,,,,,,,,,,,,,,,,,,,,,,,,,,,,,,,,,,,,,,,,,,,,,,,,,,,,,,,,,,,
Italy,,,,,,,,,,,,,,,,,,,,,,,,,,,,,,,,,,,,,,,,,,,,,,,,,,,,,,,,,,,,,,,,,,,,,,,,,
Jamaica,,,,,200,250,450,950,8696,500,8500,4600,200,400,415,275,528,317,673,215,101,52,14,13,4,3,1,62,0,0,0,0,0,0,0,,,,,,,,,,,,,,,,,,,,,,,,,,,,,,,,,,,,,,
Japan,,,,,,,,,,,,,,,,,,,,,,,,,,,,,,,,,,,,,,,,,,,,,,,,,,,,,,,,,,,,,,,,,,,,,,,,,
Jordan,,,,,,,,,,,,,,,,,,,,,,,,,,,,,,,,,,,,,,,,,,,,,,,,,,,,,,,,,,,,,,,,,,,,,,,,,
Kazakhstan,,,,,,,,,,,,,,,,,,,,,,,,,,,,,,,,,,,,,,,,,,,,,,,,,,,,,,,,,,,,,,,,,,,,,,,,,
Kenya,63,63,63,63,10500,>0,>0,>0,>0,>0,>0,>0,>0,>0,>0,,,,,,,,,,,,,,,,,,,0,0,0,2629,44,123,0,,,,,,,,,,,,,,,,,,,,,,,,,,,,,,,,,
Kiribati,,,,,,,,,,,,,,,,2,,,,,,,,,,,,,,,,,,,,,1596,55,14,,,,,,,,,,>0,,0,0,,,,,,,,,,,,,,,,,,,,,
Kuwait,,,,,,,,,,,,,,,,,,,,,,,,,,,,,,,,,,,,,,,,,,,,,,,,,,,,,,,,,,,,,,,,,,,,,,,,,
Kyrgyzstan,,,,,,,,,,,,,,,,,,,,,,,,,,,,,,,,,,,,,,,,,,,,,,,,,,,,,,,,,,,,,,,,,,,,,,,,,
Lao People's Democratic Republic,>0,>0,>0,>0,>0,>0,>0,>0,5102,5102,3400,3400,3400,3400,3400,9823,,9198,,,,,,,,,,,,,,,,,,,,,,,,,,,,,,,,,,,17,,,,,,,,,,,,,,,,,,,,
Latvia,,,,,,,,,,,,,,,,,,,,,,,,,,,,,,,,,,,,,,,,,,,,,,,,,,,,,,,,,,,,,,,,,,,,,,,,,
Lebanon,,,,,,,,,,,,,,,,,,,,,,,,,,,,,,,,,,,,,,,,,,,,,,,,,,,,,,,,,,,,,,,,,,,,,,,,,
Lesotho,,,,,,,,,,,,,,,,0,,,,,,,,,,,,,,,,,,,,,,,,,,,,,,,,,,,,,,,,,,,,,,,,,,,,,,,,,
Liberia,>0,>0,>0,>0,>0,>0,>0,>0,3142,10472,63124,4514,>0,>0,>0,,,,,,,,,,,,,,,,,,,,,218,602,533,300,261,>0,,,,,>0,>0,>0,>0,>0,>0,>0,>0,>0,>0,,,,,,,,,,,,,,,,,,
Libya,,,,,,,,,,,,,,,,,,,,,,,,,,,,,,,,,,,,,,,,,,,,,,,,,,,,,,,,,,,,,,,,,,,,,,,,,
Lithuania,,,,,,,,,,,,,,,,,,,,,,,,,,,,,,,,,,,,,,,,,,,,,,,,,,,,,,,,,,,,,,,,,,,,,,,,,
Luxembourg,,,,,,,,,,,,,,,,,,,,,,,,,,,,,,,,,,,,,,,,,,,,,,,,,,,,,,,,,,,,,,,,,,,,,,,,,
Macao,,,,,,,,,,,,,,,,,,,,,,,,,,,,,,,,,,,,,,,,,,,,,,,,,,,,,,,,,,,,,,,,,,,,,,,,,
Madagascar,>0,>0,>0,31800,>0,>0,>0,>0,>0,>0,>0,>0,>0,>0,>0,1643,,,,,,,,,,,,,,,,,0,346,,~0,15,~0,0,0,,,,,,,,,,,,,,,,,,,,,,,,,,,,,,,,,
Malawi,4552,>0,2986,1796,3122,2778,>0,>0,>0,>0,>0,>0,>0,>0,>0,,,,,,,,,,,,,,,,,,0,,,0,0,,,,,,,,,,,,,,,,,,,,,,,,,,,,,,,,,,,,
Malaysia,>0,>0,15136,104202,36210,36210,36210,36210,43822,62115,>0,>0,4394,9462,6954,5523,3523,2043,1455,825,560,420,401,335,325,690,613,268,339,156,136,198,138,94,85,92,33,22,9,2,>0,,,1,10,1,,,,,,,,,,,,,,,,,,,,,,,,,,,
Maldives,,,,,,,,,,,,,,,,,,,,,,,,,,,,,,,,,,,,,,,,,,,,,,,,,,,,,,,,,,,,,,,,,,,,,,,,,
Mali,>0,>0,>0,7600,21757,12889,>0,>0,>0,>0,>0,>0,>0,>0,>0,,,8809,,,,,,,,,,439,318,282,379,377,320,291,164,186,203,47,33,224,95,6594,>0,,,,,,,,,,,,,,,,,,,,,,,,,,,,,,
Malta,,,,,,,,,,,,,,,,,,,,,,,,,,,,,,,,,,,,,,,,,,,,,,,,,,,,,,,,,,,,,,,,,,,,,,,,,
Marshall Islands,,,,,,,,,,,,,,,,,,,,,,,,,,,,,,,,,,,,,,,,,,,,,,,,,,,0,0,,,,,,,,,,,,,,,,,,,,,
Martinique,,,,,,,,,,,,,,,,,,,0,,,,,,,,,,,,40,>0,26,>0,>0,>0,,,,,,,,,,2,,,,,,,,,,,,,,,,,,,,,,,,,,,
Mauritania,>0,>0,>0,100,21757,274,>0,>0,>0,>0,>0,>0,>0,>0,>0,,,,,,,,,,,,,,,,,,,,,,,,,,,,,,,,,,,,,,,,,,,,,,,,,,,,,,,,,,
Mauritius,,,,,,,,,,,,,,,,,,,,,,,,,,,,,,,,,,,,,,,,,,,,,,,,,,,,,,,,,,,,,,,,,,,,,,,,,
Mexico,,,,,,,,,,,,,,,,,,,,,0,0,0,,,,,,,,,,,,,,,,,,,,,,,,,,,,,,,,,,,,,,,,,,,,,,,,,,
Micronesia (Federated States of),,5000,,,,,,,,,,,,,,,,,,,,,,,,,,,,,,,,,,,,,,,,,,,,,,,,,0,0,,,,,,,,,,,,,,,,,,,,,
Monaco,,,,,,,,,,,,,,,,,,,,,,,,,,,,,,,,,,,,,,,,,,,,,,,,,,,,,,,,,,,,,,,,,,,,,,,,,
Mongolia,,,,,,,,,,,,,,,,,,,,,,,,,,,,,,,,,,,,,,,,,,,,,,,,,,,,,,,,,,,,,,,,,,,,,,,,,
Montenegro,,,,,,,,,,,,,,,,,,,,,,,,,,,,,,,,,,,,,,,,,,,,,,,,,,,,,,,,,,,,,,,,,,,,,,,,,
Montserrat,,,,,,,,558,432,293,108,71,20,6,,,2,,,,,7,,,,,,,,,,,,,,,,,,,,,,,,,,,,,,,,,,,,,,,,,,,,,,,,,,,
Morocco,,,,,,,,,,,,,,,,,,,,,,,,,,,,,,,,,,,,,,,,,,,,,,,,,,,,,,,,,,,,,,,,,,,,,,,,,
Mozambique,44757,54925,59364,61286,65099,64000,53975,49000,34000,>0,31195,>0,>0,>0,>0,,,,,9315,,,,,,,,,,,,,,,,~0,~0,~0,~0,319,,,,,,,,,,,,,,,,,,,,,,,,,,,,,,,,,
Myanmar,>0,>0,>0,>0,>0,>0,>0,>0,>0,>0,>0,>0,>0,>0,>0,,,,,,,,,,,,,,,,,,,,,>0,>0,>0,>0,>0,>0,,,,,,,,,,,,,,,,,,,,,,,,,,,,,,,,
Namibia,,,,,,,,,,,,,,,,,,,,,,,,,,,,,,,,,,,,,,,,,,,,,,,,,,,,,,,,,,,,,,,,,,,,,,,,,
Nauru,,,,,,,,,,,,,,,,,,,,,,,,,,,,,,,,,,,,,,,,,,,,,,,,,,0,,,,,,,,,,,,,,,,,,,,,,,
Nepal,,,,,,,,,,,,,,,,,,,,,,,,,,,,,,,,,,,,,,,,,,,,,,,,,,,,,,,,,,,,,,,,,,,,,,,,,
Netherland Antilles,,,,,,,,,,,0,0,,,,,,,,,,,,,,,,,,,,,,,,,,,,,,,,,,,,,,,,,,,,,,,,,,,,,,,,,,,,,
Netherlands,,,,,,,,,,,,,,,,,,,,,,,,,,,,,,,,,,,,,,,,,,,,,,,,,,,,,,,,,,,,,,,,,,,,,,,,,
New Caledonia,,,,,,,,,,,117,,,,,20,,,,,,,,,,,,,,,,,,,,,,,,,,,,,,,,,0,0,0,0,,,,,,,,,,,,,,,,,,,,,
New Zealand,,,,,,,,,,,,,,,,,,,,,,,,,,,,,,,,,,,,,,,,,,,,,,,,,,,,,,,,,,,,,,,,,,,,,,,,,
Nicaragua,>0,>0,>0,>0,>0,>0,>0,>0,>0,>0,>0,>0,>0,>0,>0,,,,,,,,0,,,,,,,,,,,,,,,,,,,,,,,,,,,,,,,,,,,,,,,,,,,,,,,,,,
Niger,,,,200,21757,493,,2,,,,,,,,,,,,,,,,,,,>0,0,5,2,13,2,0,7066,0,~0,~0,9931,,~0,0,415,280,704,,,,,,,,,,,,,,,,,,,,,,,,,,,,,
Nigeria,>0,>0,>0,>0,>0,30000,>0,>0,>0,162147,36714,20178,>0,95,83,,,,,3535,3725,176,20,,,,,902,1030,981,521,879,1197,757,331,107,946,1201,9314,898,1154,1687,927,875,>0,>0,>0,>0,>0,>0,>0,64,,,,,,,,,,,,,,,,,,,,,
Niue,,,,,,,,,,>0,,,6,,,28,,,,,,,,,,,,,,,,,,,,,,,1,,,,,,,,,~0,~0,~0,~0,~0,,,,,,,,,,,,,,,,,,,,,
Northern Mariana Islands,,,,,,,,,,,,,,,,,,,,,,,,,,,,,,,,,,,,,,,,,,,,,,,,,0,0,,,,,,,,,,,,,,,,,,,,,,,
Norway,,,,,,,,,,,,,,,,,,,,,,,,,,,,,,,,,,,,,,,,,,,,,,,,,,,,,,,,,,,,,,,,,,,,,,,,,
"Palestinian Territory, Occupied",,,,,,,,,,,,,,,,,,,,,,,,,,,,,,,,,,,,,,,,,,,,,,,,,,,,,,,,,,,,,,,,,,,,,,,,,
Oman,,,,,,,,,,,,,,,,,,,,,,,,,,,,,,,,,,,,,,,,,,,,,,,,,,,,,,,,,,,,,,,,,,,,,,,,,
Pakistan,,,,,,,,,,,,,,,,,,,,,,,,,,,,,,,,,,,,,,,,,,,,,,,,,,,,,,,,,,,,,,,,,,,,,,,,,
Palau,,,,,,,,,,,,,,,,,,,,,,,,,,,,,,,,,,,,,,,,,,,,,,,,,,,0,0,,,,,,,,,,,,,,,,,,,,,
Panama,>0,706,376,307,243,256,158,171,189,163,144,123,65,21,0,2,4,,5,8,7,1,0,0,1,0,0,0,0,0,0,0,1,,,0,0,0,0,0,0,0,0,0,0,0,0,0,,,,,,,,,,,,,,,,,,,,,,,,,
Papua New Guinea,5,>0,>0,>0,>0,>0,>0,>0,15985,18778,13589,6013,2858,2056,2352,7053,>0,56,244,>0,274,206,>0,>0,214,132,135,416,954,526,421,326,930,1800,77,>0,>0,>0,33,833,1647,1854,>0,2063,3421,3323,4170,>0,>0,271,>0,>0,145,>0,>0,495,33,>0,17000,>0,18000,>0,>0,28989,25822,29061,28989,17560,19710,29886,28584,33891,
Paraguay,,0,0,0,0,0,0,0,0,0,0,0,0,0,0,0,,,1,,,,,,,,,,,,,,,,,,,,,,,,,,,,,,,,,,,,,,,,,,,,,,,,,,,,,,
Peru,>0,>0,>0,>0,>0,>0,1148,936,936,936,555,181,194,184,102,,74,41,32,19,63,25,33,38,70,25,23,3,8,1,3,1,2,2,2,,,,,,,,,,,,,,,,,,,,,,,,,,,,,,,,,,,,,,
Puerto Rico,1,0,0,0,0,0,0,0,0,0,0,0,,,,,,,,,,,,,,,,,,,,,,,,,,,,,,,,,,,,,,,,,,,,,,,,,,,,,,,,,,,,,
Philippines,>0,>0,>0,>0,>0,56,8816,792,47220,69093,45906,58325,48216,23114,15540,8348,3864,2599,2567,2797,1116,1901,1542,1140,773,602,,,,,,,,,1,,,,,,,,,,,0,,,,,,,,,,118,,,,,,,,,,,,99,,,,,14
Pitcairn Islands,,,,,,,,,,,,,,,,,,,,,,,,,,,,,,,,,,,,,,,,,,,,,,,,0,0,0,0,0,,,,,,,,,,,,,,,,,,,,,
Poland,,,,,,,,,,,,,,,,,,,,,,,,,,,,,,,,,,,,,,,,,,,,,,,,,,,,,,,,,,,,,,,,,,,,,,,,,
Portugal,,,,,,,,,,,,,,,,,,,,,,,,,,,,,,,,,,,,,,,,,,,,,,,,,,,,,,,,,,,,,,,,,,,,,,,,,
Qatar,,,,,,,,,,,,,,,,,,,,,,,,,,,,,,,,,,,,,,,,,,,,,,,,,,,,,,,,,,,,,,,,,,,,,,,,,
Republic of Korea,,,,,,,,,,,,,,,,,,,,,,,,,,,,,,,,,,,,,,,,,,,,,,,,,,,,,,,,,,,,,,,,,,,,,,,,,
Republic of Moldova,,,,,,,,,,,,,,,,,,,,,,,,,,,,,,,,,,,,,,,,,,,,,,,,,,,,,,,,,,,,,,,,,,,,,,,,,
Romania,,,,,,,,,,,,,,,,,,,,,,,,,,,,,,,,,,,,,,,,,,,,,,,,,,,,,,,,,,,,,,,,,,,,,,,,,
Russian Federation,,,,,,,,,,,,,,,,,,,,,,,,,,,,,,,,,,,,,,,,,,,,,,,,,,,,,,,,,,,,,,,,,,,,,,,,,
Rwanda,>0,>0,>0,>0,>0,62100,>0,>0,>0,>0,>0,>0,>0,>0,>0,32093,,,,,,,,,,,,0,0,1172,649,659,687,577,490,489,455,617,408,225,19,286,265,189,17,,,,,,,,,,,,,,,,,,,,,,,,,,,,
Saint Kitts and Nevis,,,,,,422,806,615,574,498,239,236,223,204,0,0,1,0,0,,0,0,1,0,,,,,,,,,,,,,,,,,,,,,,,,,,,,,,,,,,,,,,,,,,,,,,,,,
Saint Lucia,,997,305,1050,745,679,516,557,774,1124,1010,640,270,71,140,64,125,432,592,431,43,27,9,8,11,8,26,10,5,0,2,1,2,0,1,,,,,,,,,,,,,,,,,,,,,,,,,,,,,,,,,,,,,,
Saint Vincent and the Grenadines,,4611,2440,3567,3528,1289,875,1311,1680,1430,401,1117,5,5,73,60,,,,,,1097,,,,,40,96,79,0,0,0,0,1,1,,,,,,,,,,,,,,,,,,,,,,,,,,,,,,,,,,,,,,
Samoa,,,,,,6883,6883,6883,6883,>0,5178,5178,258,368,11,5,8,>0,>0,2,8,1,>0,>0,>0,,,,,,,,,,,,,,,,,,,,,,,0,0,0,0,0,,,,,,,,,,,,,,,,,,,,,
San Marino,,,,,,,,,,,,,,,,,,,,,,,,,,,,,,,,,,,,,,,,,,,,,,,,,,,,,,,,,,,,,,,,,,,,,,,,,
Sao Tome and Principe,,,,,,,,,,,,,,,,,,,,,,,,,,,,,,,,,0,0,0,0,,,,,,,,,,,,,,,,,,,,,,,,,,,,,,,,,,,,,
Saudi Arabia,,,,,,,,,,,,,,,,,,,,,,,,,,,,,,,,,,,,,,,,,,,,,,,,,,,,,,,,,,,,,,,,,,,,,,,,,
Senegal,>0,>0,>0,3200,21757,1279,>0,>0,>0,>0,>0,>0,>0,>0,>0,,1139,,,,,,,,,>0,>0,0,0,0,106,91,45,200,302,1432,68,144,70,31,3,18,380,21,,>0,>0,>0,>0,>0,>0,,,,,,,,,,,,,,,,,,,,,,
Serbia,,,,,,,,,,,,,,,,,,,,,,,,,,,,,,,,,,,,,,,,,,,,,,,,,,,,,,,,,,,,,,,,,,,,,,,,,
Seychelles,,,,,,,,,,,,,,,,,,,,,,,,,,,,,,,,,0,0,0,0,0,,,,,,,,,,,,,,,,,,,,,,,,,,,,,,,,,,,,
Sierra Leone,>0,10400,>0,406,7400,>0,15697,15400,>0,>0,>0,50560,>0,>0,>0,>0,>0,>0,>0,>0,>0,>0,>0,,,,,52,29,32,,,,,122,154,1,~0,~0,~0,,,,,,,,,,,,,,,,,,,,,,,,,,,,,,,,,
Singapore,,,,,,,,,,,65,53,9,15,,,,,,,,,,,,,,,,,,,,,,,,,,,,,,,,,,,,,,,,,,,,,,,,,,,,,,,,,,,
Slovakia,,,,,,,,,,,,,,,,,,,,,,,,,,,,,,,,,,,,,,,,,,,,,,,,,,,,,,,,,,,,,,,,,,,,,,,,,
Slovenia,,,,,,,,,,,,,,,,,,,,,,,,,,,,,,,,,,,,,,,,,,,,,,,,,,,,,,,,,,,,,,,,,,,,,,,,,
Solomon Islands,,,,,,,>0,>0,9,22,>0,5543,5543,5543,>0,66,124,26,>0,>0,>0,>0,>0,>0,>0,52,>0,>0,>0,>0,>0,>0,>0,>0,>0,>0,1,>0,>0,4041,92,83,2070,4366,6477,9664,18392,33648,33000,22675,22674,>0,>0,>0,>0,20,>0,>0,>0,20090,>0,20371,4000,>0,11622,20635,16700,12372,14909,13312,9736,18082,
Somalia,>0,>0,500,>0,>0,500,>0,>0,>0,>0,>0,>0,>0,>0,>0,,,,,,,,,,,,,,,,,,,,,,,,,,,,,,,,,,,,,,,,,,,,,,,,,,,,,,,,,,
South Africa,,,,,,,,,,,,,,,,,,,,,,,,,,,,,,,,,,,,,,,,,,,,,,,,,,,,,,,,,,,,,,,,,,,,,,,,,
South Sudan,>0,>0,>0,29794,28778,31714,>0,>0,>0,>0,>0,33487,42797,29859,41819,,,34823,,,,,,,,,,,,,,,,,,,,,,,,,,,,>0,,,,,,,,,,,,,,,,,,,,,,,,,,,
Spain,,,,,,,,,,,,,,,,,,,,,,,,,,,,,,,,,,,,,,,,,,,,,,,,,,,,,,,,,,,,,,,,,,,,,,,,,
Sri Lanka,>0,>0,>0,>0,>0,>0,>0,>0,20,>0,39,39,39,39,39,>0,>0,>0,>0,>0,>0,>0,>0,>0,>0,,0,0,3,19,0,0,9,6,6,5,1,2,9,,,,,,,,,,,,,,,,,,,,,,,,,,,,,,,,,,
Sudan,,,,,,,,,,,,,,,,,,,,,,,,,,,,,,,,,,,,,,,,,,,,,,,,,,,,,,,,,,,,,,,,,,,,,,,,,
Suriname,>0,2187,2448,2025,1339,1436,806,462,312,341,269,324,644,799,>0,914,491,581,,,,,,,,,,,3,20,11,29,8,2,26,12,21,45,21,>0,>0,,,,,,,,,,,,,,,,,,,,,,,,,,,,,,,,
Swaziland,,,,,,,,,,,,,,,,,,,,,,,,,,,,,,,,,,,,,,,,,,,,,,,,,,,,,,,,,,,,,,,,,,,,,,,,,
Sweden,,,,,,,,,,,,,,,,,,,,,,,,,,,,,,,,,,,,,,,,,,,,,,,,,,,,,,,,,,,,,,,,,,,,,,,,,
Switzerland,,,,,,,,,,,,,,,,,,,,,,,,,,,,,,,,,,,,,,,,,,,,,,,,,,,,,,,,,,,,,,,,,,,,,,,,,
Syrian Arab Republic,,,,,,,,,,,,,,,,,,,,,,,,,,,,,,,,,,,,,,,,,,,,,,,,,,,,,,,,,,,,,,,,,,,,,,,,,
Tajikistan,,,,,,,,,,,,,,,,,,,,,,,,,,,,,,,,,,,,,,,,,,,,,,,,,,,,,,,,,,,,,,,,,,,,,,,,,
Thailand,>0,>0,>0,>0,>0,17911,82924,122665,140272,346746,249344,170789,104546,83525,47589,21458,11365,14910,13508,5235,4272,2227,,,,,,16,10,7,10,3,2,0,0,,,18,>0,2,2,1,0,27,27,278,,,,,,5,1,~0,~0,8,~0,~0,~0,~0,~0,~0,~0,~0,~0,~0,~0,~0,,,,,
The former Yugoslav republic of Macedonia,,,,,,,,,,,,,,,,,,,,,,,,,,,,,,,,,,,,,,,,,,,,,,,,,,,,,,,,,,,,,,,,,,,,,,,,,
Timor-Leste,,,,,,,10257,,,,,,,,,5287,,,,,,,,,,,,,,,,,,,,>0,>0,>0,>0,>0,>0,,,,,,,,,,,,,,,,,,,,,>0,6,,,6,>0,>0,,,,,
Togo,>0,>0,>0,74469,82767,116541,>0,>0,>0,18,18,78900,>0,>0,>0,32828,>0,>0,>0,2456,,12312,,,,>0,>0,4251,3991,2463,2868,4866,5497,4062,2687,3890,3628,3816,4382,2956,5719,2404,5639,5729,2899,4124,3750,,,,,,,,,,,,,,,,,,,15,,5,,15,7,11,
Tokelau,,,,,,,,,,,,,,,,,,,,,,,,,,,,,,,,,,,,,,,,,,,,,,,,,,,,,,,,,,,,,,,,,,,,,,,,,
Tonga,,,,,,>0,>0,>0,>0,>0,>0,>0,>0,>0,>0,>0,264,7452,15,32,4,4,1,2,4,1,3,20,10,6,6,7,,,,,,,,,,,,,,,,,,,,,,,,,,,,,,,,,,,,,,,,,
Trinidad and Tobago,>0,>0,>0,2105,3137,672,1081,45,58,719,451,515,841,1036,1241,878,,722,915,,,,,0,1,143,256,421,604,1048,825,606,513,346,123,,,,,,,,,,,,,,,,,,,,,,,,,,,,,,,,,,,,,,
Tunisia,,,,,,,,,,,,,,,,,,,,,,,,,,,,,,,,,,,,,,,,,,,,,,,,,,,,,,,,,,,,,,,,,,,,,,,,,
Turkey,,,,,,,,,,,,,,,,,,,,,,,,,,,,,,,,,,,,,,,,,,,,,,,,,,,,,,,,,,,,,,,,,,,,,,,,,
Turkmenistan,,,,,,,,,,,,,,,,,,,,,,,,,,,,,,,,,,,,,,,,,,,,,,,,,,,,,,,,,,,,,,,,,,,,,,,,,
Turks and Caicos,,,,,,,,,,,,,,,,,,,0,0,,,,,,,,,,,,,,,,,,,,,,,,,,,,,,,,,,,,,,,,,,,,,,,,,,,,,
Tuvalu,,,,,,,,,,,,,,,,2,,,,,,,,,,,,,,,26,,,,,~0,~0,~0,~0,~0,~0,~0,~0,~0,464,2,,,,,,0,,,,,,,,,,,,,,,,,,,,,
Uganda,>0,>0,>0,>0,11225,11225,1530,193,>0,>0,>0,>0,>0,>0,>0,,1,,,,,,,,,,,,,6934,,10,219,0,0,128,685,198,697,260,,,,,,,,,,,,,,,,,,,,,,,,,,,,,,,,,
United Kingdom of Great Britain and Northern Ireland,,,,,,,,,,,,,,,,,,,,,,,,,,,,,,,,,,,,,,,,,,,,,,,,,,,,,,,,,,,,,,,,,,,,,,,,,
Ukraine,,,,,,,,,,,,,,,,,,,,,,,,,,,,,,,,,,,,,,,,,,,,,,,,,,,,,,,,,,,,,,,,,,,,,,,,,
United Arab Emirates,,,,,,,,,,,,,,,,,,,,,,,,,,,,,,,,,,,,,,,,,,,,,,,,,,,,,,,,,,,,,,,,,,,,,,,,,
United Republic of Tanzania,69090,51259,60766,61948,67223,52374,>0,>0,10063,10063,>0,>0,>0,>0,>0,,,1421,,,,,,,,,,,,,,,,71,,>0,>0,0,>0,>0,>0,,,,,,,,,,,,,,,,,,,,,,,,,,,,,,,,
Uruguay,,,,,,,,,,,,,,,,,0,,0,,,,,,,,,,,,,,,,,,,,,,,,,,,,,,,,,,,,,,,,,,,,,,,,,,,,,,
United States of America,,,,,,,,,,,,,,,,,,,,,,,,,,,,,,,,,,,,,,,,,,,,,,,,,,,,,,,,,,,,,,,,,,,,,,,,,
Uzbekistan,,,,,,,,,,,,,,,,,,,,,,,,,,,,,,,,,,,,,,,,,,,,,,,,,,,,,,,,,,,,,,,,,,,,,,,,,
Vanuatu,942,,,,,>0,>0,164,>0,>0,>0,>0,>0,>0,>0,>0,>0,>0,>0,>0,>0,328,>0,>0,>0,>0,>0,>0,>0,3,144,84,>0,3,51,1,40,>0,200,492,495,157,>0,446,464,29,142,29,6,20,70,38,125,25,170,420,420,330,330,625,420,1050,1125,1170,2000,1593,2331,2514,1198,615,317,609,
Venezuela (Bolivarian Republic of),2684,2684,1471,2674,3680,2530,1978,1457,1285,976,901,716,647,426,250,146,197,373,133,140,131,6,12,11,0,0,0,0,0,0,0,0,0,0,0,0,0,0,0,0,0,0,0,0,0,0,0,>0,,,,,,,,,,,,,,,,,,,,,,,,,
Viet Nam,>0,>0,>0,>0,>0,>0,>0,>0,>0,>0,>0,>0,>0,>0,>0,,,,,,,,,,,,,,,,,,,,,,,,,,,,,,,1927,,,,,,,,,,,,,,,,,,,,,,,,,,,
Wallis and Futuna,,,,,,,,,,,,,,,,,,,,,,,,,,,,,,,,,,,,,,,,,,,,,,,,,,,,,,,,,,,,,,,,,,27,,,,,,,
Yemen,,,,,,,,,,,,,,,,,,,,,,,,,,,,,,,,,,,,,,,,,,,,,,,,,,,,,,,,,,,,,,,,,,,,,,,,,
Zambia,>0,>0,>0,>0,>0,100,>0,>0,>0,>0,>0,>0,>0,>0,>0,,,,,,,,,,,,,,,,,,,,,,,,,,25,,,,,,,,,,,,,,,,,,,,,,,,,,,,,,,,
Zimbabwe,,,,,400,100,>0,>0,>0,>0,>0,>0,>0,>0,>0,,,,,,,,,,,,,,,,,,,,,,,,,,,,,,,,,,,,,,,,,,,,,,,,,,,,,,,,,,
